STAT 331 Group Project
…
Visual 1 Table

#The relationship between the two quantitative variables changing over time. 

vis_1_df <-
joined_data %>% 
  mutate(carbon_emissions_tonnes = 
            case_when(carbon_emissions_tonnes < 2 ~ "< 2 tonnes",
            carbon_emissions_tonnes >2 & carbon_emissions_tonnes<5 ~ "2-5 tonnes",
            carbon_emissions_tonnes > 5 ~ ">5 tonnes")) %>% 
  drop_na() %>%
  mutate(year=as.numeric(year))
vis_1_df

# A tibble: 4,256 × 4
   country      year carbon_emissions_tonnes life_expectancy_years
   <chr>       <dbl> <chr>                                   <dbl>
 1 Afghanistan  2000 < 2 tonnes                               54.7
 2 Afghanistan  2001 < 2 tonnes                               54.8
 3 Afghanistan  2002 < 2 tonnes                               55.5
 4 Afghanistan  2003 < 2 tonnes                               56.5
 5 Afghanistan  2004 < 2 tonnes                               57.1
 6 Afghanistan  2005 < 2 tonnes                               57.6
 7 Afghanistan  2006 < 2 tonnes                               58  
 8 Afghanistan  2007 < 2 tonnes                               58.5
 9 Afghanistan  2008 < 2 tonnes                               59.2
10 Afghanistan  2009 < 2 tonnes                               59.9
# ℹ 4,246 more rows
…
